RCC Stuff/Lab8ChrisThomas/simulation/qsim/Moore1010.msim.vcd
$comment
	File created using the following command:
		vcd file Moore1010.msim.vcd -direction
$end
$date
	Wed Aug 26 10:11:13 2020
$end
$version
	ModelSim Version 10.5b
$end
$timescale
	1ps
$end

$scope module Moore1010_vlg_vec_tst $end
$var reg 1 ! clk $end
$var reg 1 " in $end
$var reg 1 # reset $end
$var wire 1 $ LEDR [8] $end
$var wire 1 % LEDR [7] $end
$var wire 1 & LEDR [6] $end
$var wire 1 ' LEDR [5] $end
$var wire 1 ( LEDR [4] $end
$var wire 1 ) LEDR [3] $end
$var wire 1 * LEDR [2] $end
$var wire 1 + LEDR [1] $end
$var wire 1 , LEDR [0] $end
$var wire 1 - out $end

$scope module i1 $end
$var wire 1 . gnd $end
$var wire 1 / vcc $end
$var wire 1 0 unknown $end
$var tri1 1 1 devclrn $end
$var tri1 1 2 devpor $end
$var tri1 1 3 devoe $end
$var wire 1 4 ~QUARTUS_CREATED_GND~I_combout $end
$var wire 1 5 ~QUARTUS_CREATED_UNVM~~busy $end
$var wire 1 6 ~QUARTUS_CREATED_ADC1~~eoc $end
$var wire 1 7 ~QUARTUS_CREATED_ADC2~~eoc $end
$var wire 1 8 out~output_o $end
$var wire 1 9 LEDR[0]~output_o $end
$var wire 1 : LEDR[1]~output_o $end
$var wire 1 ; LEDR[2]~output_o $end
$var wire 1 < LEDR[3]~output_o $end
$var wire 1 = LEDR[4]~output_o $end
$var wire 1 > LEDR[5]~output_o $end
$var wire 1 ? LEDR[6]~output_o $end
$var wire 1 @ LEDR[7]~output_o $end
$var wire 1 A LEDR[8]~output_o $end
$var wire 1 B clk~input_o $end
$var wire 1 C in~input_o $end
$var wire 1 D Selector0~0_combout $end
$var wire 1 E reset~input_o $end
$var wire 1 F state.Zero~q $end
$var wire 1 G Selector1~0_combout $end
$var wire 1 H state.One~q $end
$var wire 1 I Selector2~0_combout $end
$var wire 1 J state.OneZero~q $end
$var wire 1 K Selector3~0_combout $end
$var wire 1 L state.OneZeroOne~q $end
$var wire 1 M state~12_combout $end
$var wire 1 N state.OneZeroOneZero~q $end
$upscope $end
$upscope $end
$enddefinitions $end
#0
$dumpvars
0!
0"
0#
0,
0+
0*
0)
0(
0'
0&
0%
0$
0-
0.
1/
x0
11
12
13
04
z5
z6
z7
08
09
0:
0;
0<
0=
0>
0?
0@
0A
0B
0C
0D
0E
0F
0G
0H
0I
0J
0K
0L
0M
0N
$end
#70000
1"
1C
1G
1D
#80000
1!
1B
1H
1F
#150000
0"
0C
1I
0G
#160000
0!
0B
#240000
1!
1B
1J
0H
#320000
0!
0B
#380000
1"
1C
1K
0I
#400000
1!
1B
1L
0J
#470000
0"
0C
1M
0K
#480000
0!
0B
#560000
1!
1B
0L
1N
18
1-
0M
0D
#640000
0!
0B
#700000
1#
1E
0F
0N
08
0-
#720000
1!
1B
#770000
0#
0E
#800000
0!
0B
#880000
1!
1B
#960000
0!
0B
